{
   "count":964,
   "next":"https://pokeapi.co/api/v2/pokemon?offset=20&limit=20",
   "previous":null,
   "results":[
      {
         "name":"bulbasaur",
         "url":"https://pokeapi.co/api/v2/pokemon/1/",
         "id":1,
         "height":7,
         "weight":69,
         "ShinyFront":"https://raw.githubusercontent.com/PokeAPI/sprites/master/sprites/pokemon/shiny/1.png"
      
},
      {
         "name":"ivysaur",
         "url":"https://pokeapi.co/api/v2/pokemon/2/",
         "id":2,
         "height":10,
         "weight":130,
         "ShinyFront":"https://raw.githubusercontent.com/PokeAPI/sprites/master/sprites/pokemon/shiny/2.png"
      
},
      {
         "name":"venusaur",
         "url":"https://pokeapi.co/api/v2/pokemon/3/",
         "id":3,
         "height":20,
         "weight":1000,
         "ShinyFront":"https://raw.githubusercontent.com/PokeAPI/sprites/master/sprites/pokemon/shiny/female/3.png"
},
      {
         "name":"charmander",
         "url":"https://pokeapi.co/api/v2/pokemon/4/",
         "id":4,
         "height":6,
         "weight":85,
         "ShinyFront":"https://raw.githubusercontent.com/PokeAPI/sprites/master/sprites/pokemon/shiny/4.png"
},
      {
         "name":"charmeleon",
         "url":"https://pokeapi.co/api/v2/pokemon/5/",
         "id":5,
         "height":11,
         "weight":190,
         "ShinyFront":"https://raw.githubusercontent.com/PokeAPI/sprites/master/sprites/pokemon/shiny/5.png"
},
      {
         "name":"charizard",
         "url":"https://pokeapi.co/api/v2/pokemon/6/",
         "id":6,
         "height":17,
         "weight":905,
         "ShinyFront":"https://raw.githubusercontent.com/PokeAPI/sprites/master/sprites/pokemon/shiny/6.png"
      
},
      {
         "name":"squirtle",
         "url":"https://pokeapi.co/api/v2/pokemon/7/",
         "id":7,
         "height":5,
         "weight":90,
         "ShinyFront":"https://raw.githubusercontent.com/PokeAPI/sprites/master/sprites/pokemon/shiny/7.png"
      
},
      {
         "name":"wartortle",
         "url":"https://pokeapi.co/api/v2/pokemon/8/",
         "id":8,
         "height":10,
         "weight":225,
         "ShinyFront":"https://raw.githubusercontent.com/PokeAPI/sprites/master/sprites/pokemon/shiny/8.png"
      
},
      {
         "name":"blastoise",
         "url":"https://pokeapi.co/api/v2/pokemon/9/",
         "id":9,
         "height":16,
         "weight":855,
         "ShinyFront":"https://raw.githubusercontent.com/PokeAPI/sprites/master/sprites/pokemon/shiny/9.png"
      
},
      {
         "name":"caterpie",
         "url":"https://pokeapi.co/api/v2/pokemon/10/",
         "id":10,
         "height":3,
         "weight":29,
         "ShinyFront":"https://raw.githubusercontent.com/PokeAPI/sprites/master/sprites/pokemon/shiny/10.png"
      
},
      {
         "name":"metapod",
         "url":"https://pokeapi.co/api/v2/pokemon/11/",
         "id":11,
         "height":7,
         "weight":99,
         "ShinyFront":"https://raw.githubusercontent.com/PokeAPI/sprites/master/sprites/pokemon/shiny/11.png"
      
},
      {
         "name":"butterfree",
         "url":"https://pokeapi.co/api/v2/pokemon/12/",
         "id":12,
         "height":11,
         "weight":320,
         "ShinyFront":"https://raw.githubusercontent.com/PokeAPI/sprites/master/sprites/pokemon/shiny/female/12.png"
      
},
      {
         "name":"weedle",
         "url":"https://pokeapi.co/api/v2/pokemon/13/",
         "id":13,
         "height":3,
         "weight":32,
         "ShinyFront":"https://raw.githubusercontent.com/PokeAPI/sprites/master/sprites/pokemon/shiny/13.png"
      
},
      {
         "name":"kakuna",
         "url":"https://pokeapi.co/api/v2/pokemon/14/",
         "id":14,
         "height":6,
         "weight":100,
         "ShinyFront":"https://raw.githubusercontent.com/PokeAPI/sprites/master/sprites/pokemon/shiny/14.png"
      
},
      {
         "name":"beedrill",
         "url":"https://pokeapi.co/api/v2/pokemon/15/",
         "id":15,
         "height":10,
         "weight":295,
         "ShinyFront":"https://raw.githubusercontent.com/PokeAPI/sprites/master/sprites/pokemon/shiny/15.png"
      
},
      {
         "name":"pidgey",
         "url":"https://pokeapi.co/api/v2/pokemon/16/",
         "id":16,
         "height":3,
         "weight":18,
         "ShinyFront":"https://raw.githubusercontent.com/PokeAPI/sprites/master/sprites/pokemon/shiny/16.png"
      
},
      {
         "name":"pidgeotto",
         "url":"https://pokeapi.co/api/v2/pokemon/17/",
         "id":17,
         "height":11,
         "weight":300,
         "ShinyFront":"https://raw.githubusercontent.com/PokeAPI/sprites/master/sprites/pokemon/shiny/17.png"
      
},
      {
         "name":"pidgeot",
         "url":"https://pokeapi.co/api/v2/pokemon/18/",
         "id":18,
         "height":15,
         "weight":395,
         "ShinyFront":"https://raw.githubusercontent.com/PokeAPI/sprites/master/sprites/pokemon/shiny/18.png"
      
},
      {
         "name":"rattata",
         "url":"https://pokeapi.co/api/v2/pokemon/19/",
         "id":19,
         "height":3,
         "weight":35,
         "ShinyFront":"https://raw.githubusercontent.com/PokeAPI/sprites/master/sprites/pokemon/shiny/19.png"
      
},
      {
         "name":"raticate",
         "url":"https://pokeapi.co/api/v2/pokemon/20/",
         "id":20,
         "height":7,
         "weight":195,
         "ShinyFront":"https://raw.githubusercontent.com/PokeAPI/sprites/master/sprites/pokemon/shiny/20.png"
      
}
   
]
}